{
  "domain": [81, 2, 61],
  "dimensions":  [80., 1., 60.],
  "CG tolerance":          1e-4,
  "filter r_min":           1.5,
  "volume fraction":       0.15,
  "compliance tolerance":  1e-4,
  "save period":              1,

  "objective function": {
    "type": "mean"
  },
  
  "optimiser": {
    "type": "GCMMA"
  },

  "stiffness tensor": {
    "type": "SIMP",
    "P":       4.0,
    "E":       1.0,
    "nu":      0.3
  },

  "domain constraints":         [],
  "common boundary conditions": {},

  "load cases": [
    {
      "weighting": 1.,
      "dirichlet": [
        {
          "displacement": [0., 0., 0.],
          "i indices": [0,0], "j indices": [0, 1], "k indices": [0,60],
          "d indices": [0,2]
        }
      ],
      "traction": [
        {
          "traction": [0., 0., -1.],
          "i indices": [75,75], "j indices": [0, 1], "k indices": [0,0],
          "d indices": [2,2]
        }
      ]
    }
  ]
}

