{
  "domain":     [31, 21, 1],
  "dimensions": [0.5,1.5],
  "design dof": 1,
  "multigrid": {
    "num levels": 2
  },
 
  "filter r_min": 0.0,

  "stiffness tensor": {
    "type": "SIMP",
    "P":        1.0,
    "E":        1.0,
    "nu":       0.3
  },

  "objective function": {
    "type": "interface",
    "surface": {
      "type": "vertical",
      "i indices": [5,25],
      "j limits": [5,15]
    },
    "integrand": {
      "type": "shear stress",
      "attenuation parameter": 0.5
    }
  },

  "constraints": [],

  "load cases": [{
    "weighting": 0.1,
    "dirichlet": [
      {
        "displacement": [0.0,0.0],
        "i indices": [0,30], "j indices": [0,0],
        "d indices": [0,1]
      }
    ],
    "traction": [
      {
        "traction": [0.0, 2.0],
        "i indices": [0,30], "j indices": [20,20],
        "d indices": [0,1]
      }
    ]
  }]
}
