{
  "expected result": {
    "test name": "Axis aligned ellipsoidal tensor test",
    "tensor": [[1.13586612372,0.464105199498,0.508828322958,0,0,0],
               [0.464105199498,2.27804456524,0.734183524268,0,0,0],
               [0.508828322958,0.734183524268,3.36056001954,0,0,0],
               [0,0,0,0.966800236627,0,0],
               [0,0,0,0,0.532455665598,0],
               [0,0,0,0,0,0.501099664843]]
  },
  "domain":     [4, 4, 4 ],
  "dimensions": [1.,1.,1.],
  "multigrid": {
    "num levels": 1
  },
  "design dof": 6,

  "homogenization": true,
  "periodic":       true,

  "stiffness tensor": {
    "type": "axis aligned ellipsoidal"
  },

  "common boundary conditions": {
    "dirichlet": [{
      "displacement": [0., 0., 0.],
      "i indices": [1,1],
      "j indices": [1,1],
      "k indices": [1,1],
      "d indices": [0,2] 
   }]
  },

  "load cases": [
    {
      "prestrain": [{
        "strain": [1., 0., 0., 0., 0., 0.],
      }]
    },
    {
      "prestrain": [{
        "strain": [0., 1., 0., 0., 0., 0.],
      }]
    },
    {
      "prestrain": [{
        "strain": [0., 0., 1., 0., 0., 0.],
      }]
    },
    {
      "prestrain": [{
        "strain": [0., 0., 0., .5, 0., 0.],
      }]
    },
    {
      "prestrain": [{
          "strain": [0., 0., 0., 0., .5, 0.],
      }]
    },
    {
      "prestrain": [{
          "strain": [0., 0., 0., 0., 0., .5],
      }]
    }
  ]
}
