{
  "expected result" : {
    "test name":  "Rectangular cantilever deflection test (3D)",
    "coords": [128,8,8],
    "value": [0, 0, 4e3]
  },

  "domain":     [129, 17, 17],
  "dimensions": [10,1,1],
  "multigrid": {
    "num levels": 4
  },
  "design dof": 1,
  "initial design": [1.0],
  "scale":        0.1,
  "CG tolerance": 1e-4,
  
  "stiffness tensor": {
    "type": "SIMP",
    "P":        1.,
    "E":        1.,
    "nu":       .3,
  },

  "load cases": [
    {
      "dirichlet": [
        {
          "displacement": [0,0,0],
          "i indices": [0,0], "j indices": [0,16], "k indices": [0,16],
          "d indices": [0,2]
        }
      ],
      "traction": [
        {
          "traction": [0, 0, 1],
          "i indices": [128,128], "j indices": [0,16], "k indices": [0,16],
          "d indices": [0,2]
        }
      ]
    }
  ]
}
