{
  "domain":     [11,   11,  21],
  "dimensions": [1.0, 1.0, 2.0],
  "design dof": 1,
  "initial design": [1.0],
 
  "filter r_min": 0.1,

  "stiffness tensor": {
    "type": "SIMP",
    "P":        2.0,
    "E":        1.0,
    "nu":       0.3
  },

  "objective function": {
    "type": "interface",
    "attenuation parameter": 1.0,
    "surface": {
      "type": "cylinder",
      "centre": [0.5,0.5],
      "radius": 0.349,
      "k limits": [5, 14]
    },
    "integrand": {
      "type": "Hoffman criterion",
      "tensile strength":     0.3,
      "compressive strength": 0.7,
      "shear strength":       0.5
    }
  },

  "constraints": [],

  "load cases": [
    {
      "weighting": 0.1,
      "dirichlet": [
        {
          "displacement": [0.0,0.0,0.0],
          "i indices": [0,10], "j indices": [0,10], "k indices": [0,0],
          "d indices": [0,2]
        }
      ],
      "traction": [
        {
          "traction": [1.0, 1.0, 1.0],
          "i indices": [0,10], "j indices": [0,10], "k indices": [20,20],
          "d indices": [0,2]
        }
      ]
    }
  ]
}
