{
  "domain":     [51, 6, 6],
  "dimensions": [10.0,0.5,1.0],
  "design dof": 1,
  "initial design": [1.0],
 
  "filter r_min": 0.0,

  "stiffness tensor": {
    "type": "SIMP_2D",
    "P":        2.0,
    "E":        1.0,
    "nu":       0.3
  },

  "objective function": {
    "type": "worst case"
  },

  "constraints": [],

  "load cases": [
    {
      "dirichlet": [
        {
          "displacement": [0.0,0.0,0.0],
          "i indices": [0,0], "j indices": [0,5], "k indices": [0,5],
          "d indices": [0,2]
        }
      ],
      "traction": [
        {
          "traction": [0.0, 0.0, 1.0],
          "i indices": [25,25], "j indices": [0,5], "k indices": [0,5],
          "d indices": [0,2]
        }
      ]
    },
    {
      "dirichlet": [
        {
          "displacement": [0.0,0.0,0.0],
          "i indices": [0,0], "j indices": [0,5], "k indices": [0,5],
          "d indices": [0,2]
        }
      ],
      "traction": [
        {
          "traction": [0.0, 0.0, 1.0],
          "i indices": [50,50], "j indices": [0,5], "k indices": [0,5],
          "d indices": [0,2]
        }
      ]
    }
  ]
}
