{
  "domain":     [11,   21, 1],
  "dimensions": [1.0, 2.0],
  "design dof": 1,
  "initial design": [1.0],
 
  "filter r_min": 0.1,

  "stiffness tensor": {
    "type": "SIMP_2D",
    "P":        2.0,
    "E":        1.0,
    "nu":       0.3
  },

  "objective function": {
    "type": "interface",
    "surface": {
      "type": "vertical",
      "i indices": [3, 7],
      "j limits": [5, 14]
    },
    "integrand": {
      "type": "shear stress",
      "attenuation parameter": 0.783
    }
  },

  "constraints": [],

  "load cases": [
    {
      "dirichlet": [
        {
          "displacement": [0.0,0.0],
          "i indices": [0,10], "j indices": [0,0],
          "d indices": [0,1]
        }
      ],
      "traction": [
        {
          "traction": [1.0, 1.0],
          "i indices": [0,10], "j indices": [20,20],
          "d indices": [0,1]
        }
      ]
    }
  ]
}
