{
  "domain":     [9, 9, 9],
  "dimensions": [10.0,20.5,8.0],
  "design dof": 6,
 

  "stiffness tensor": {
    "type": "axis aligned ellipsoidal"
  },

  "filter r_min": 1.0,
  "objective function": {
    "type": "mean"
  },

  "constraints": [],

  "load cases": [
    {
      "weighting": 1.0,
      "dirichlet": [
        {
          "displacement": [0.0,0.0,0.0],
          "i indices": [0,0], "j indices": [0,8], "k indices": [0,8],
          "d indices": [0,2]
        }
      ],
      "traction": [
        {
          "traction": [0.0, 0.0, 1.0],
          "i indices": [8,8], "j indices": [0,8], "k indices": [0,8],
          "d indices": [0,2]
        }
      ]
    }
  ]
}
